…
``` r
# Remove unnecessary data
data <- 
  df_with_bp_2 %>%
  select(-c(svy_id,svy_year,svy_subpop_htn,svy_subpop_chol,demo_age_years))%>%
  mutate(bp = factor(bp))
# Factor all the categorical data
is.fact <- sapply(data, is.factor)
data_categroies <- 
  data[, is.fact]%>%
  mutate_all(~factor(.))
data_categroies
```

    ## # A tibble: 18,021 × 61
    ##    bp           demo_age_cat demo_race demo_race_black demo_pregnant demo_gender
    ##    <fct>        <fct>        <fct>     <fct>           <fct>         <fct>      
    ##  1 controlled   75+          Non-Hisp… No              No            Men        
    ##  2 controlled   45 to 64     Non-Hisp… No              No            Men        
    ##  3 controlled   45 to 64     Non-Hisp… Yes             No            Women      
    ##  4 uncontrolled 18 to 44     Non-Hisp… No              No            Men        
    ##  5 controlled   18 to 44     Non-Hisp… No              No            Women      
    ##  6 controlled   18 to 44     Hispanic  No              Yes           Women      
    ##  7 controlled   18 to 44     Non-Hisp… No              No            Women      
    ##  8 controlled   45 to 64     Non-Hisp… No              No            Men        
    ##  9 controlled   18 to 44     Non-Hisp… Yes             No            Women      
    ## 10 controlled   45 to 64     Hispanic  No              No            Women      
    ## # ℹ 18,011 more rows
    ## # ℹ 55 more variables: htn_jnc7 <fct>, htn_accaha <fct>, htn_escesh <fct>,
    ## #   htn_aware <fct>, htn_resistant_jnc7 <fct>, htn_resistant_accaha <fct>,
    ## #   htn_resistant_jnc7_thz <fct>, htn_resistant_accaha_thz <fct>,
    ## #   chol_measured_never <fct>, chol_measured_last <fct>,
    ## #   chol_total_gteq_200 <fct>, chol_total_gteq_240 <fct>, chol_hdl_low <fct>,
    ## #   chol_trig_gteq_150 <fct>, chol_ldl_5cat <fct>, chol_ldl_lt_70 <fct>, …

``` r
# A dataframe with all numerical data in data
data_numerical <- 
  select_if(data, is.numeric)
data_numerical
```

    ## # A tibble: 18,021 × 9
    ##    mean_fiber svy_weight_mec svy_psu svy_strata chol_total chol_hdl chol_trig
    ##         <dbl>          <dbl>   <dbl>      <dbl>      <dbl>    <dbl>     <dbl>
    ##  1      13.2          28325.       3          1        215       54       128
    ##  2      15.5          99445.       2          8        279       42       347
    ##  3       5.83         25525.       2          4        245      105        62
    ##  4      14.5          95494.       2          6        156       38       146
    ##  5       8.31        114519.       2         11        199       58        54
    ##  6      12.1          16737.       2          2        145       43       117
    ##  7       6.27        135254.       1          5        159       55       202
    ##  8       5.08         47955.       2         12        216       49       167
    ##  9       2.94         27063.       1          7        195       41        97
    ## 10      11.5           8238.       2          9        285       66       210
    ## # ℹ 18,011 more rows
    ## # ℹ 2 more variables: chol_ldl <dbl>, chol_nonhdl <dbl>
…
